^C:\USERS\VLADIMIR\DOCUMENTS\VISUAL STUDIO 2015\PROJECTS\BITOPERATIONS\BITOPERATIONS\BITOPERATIONS\BITOPERATIONS.CPP|C:\USERS\VLADIMIR\DOCUMENTS\VISUAL STUDIO 2015\PROJECTS\BITOPERATIONS\BITOPERATIONS\BITOPERATIONS\STDAFX.CPP
C:\USERS\VLADIMIR\DOCUMENTS\VISUAL STUDIO 2015\PROJECTS\BITOPERATIONS\BITOPERATIONS\BITOPERATIONS\DEBUG\VC140.PDB
C:\USERS\VLADIMIR\DOCUMENTS\VISUAL STUDIO 2015\PROJECTS\BITOPERATIONS\BITOPERATIONS\BITOPERATIONS\DEBUG\VC140.IDB
C:\USERS\VLADIMIR\DOCUMENTS\VISUAL STUDIO 2015\PROJECTS\BITOPERATIONS\BITOPERATIONS\BITOPERATIONS\DEBUG\BITOPERATIONS.OBJ
C:\USERS\VLADIMIR\DOCUMENTS\VISUAL STUDIO 2015\PROJECTS\BITOPERATIONS\BITOPERATIONS\BITOPERATIONS\DEBUG\STDAFX.OBJ
^C:\USERS\VLADIMIR\DOCUMENTS\VISUAL STUDIO 2015\PROJECTS\BITOPERATIONS\BITOPERATIONS\BITOPERATIONS\BITOPERATIONS.CPP
C:\USERS\VLADIMIR\DOCUMENTS\VISUAL STUDIO 2015\PROJECTS\BITOPERATIONS\BITOPERATIONS\BITOPERATIONS\DEBUG\VC140.PDB
^C:\USERS\VLADIMIR\DOCUMENTS\VISUAL STUDIO 2015\PROJECTS\BITOPERATIONS\BITOPERATIONS\BITOPERATIONS\STDAFX.CPP
C:\USERS\VLADIMIR\DOCUMENTS\VISUAL STUDIO 2015\PROJECTS\BITOPERATIONS\BITOPERATIONS\BITOPERATIONS\DEBUG\VC140.PDB
